[gd_scene load_steps=3 format=3 uid="uid://dkuahcn0sc1td"]

[ext_resource type="PackedScene" uid="uid://dh08btt6rs4ms" path="res://Types/Projectiles/#AbstractProjectile/AbstractProjectile.tscn" id="1_gv1aa"]
[ext_resource type="Texture2D" uid="uid://8sedxpgurond" path="res://Types/Projectiles/Bullet/sprite.png" id="2_vo56f"]

[node name="BulletProjectile" instance=ExtResource("1_gv1aa")]

[node name="sprite" parent="." index="0"]
texture = ExtResource("2_vo56f")

[node name="collision" parent="." index="1"]
polygon = PackedVector2Array(-2, -1, 2, -1, 2, 1, -2, 1)
