[gd_scene load_steps=5 format=3 uid="uid://g734pdj6in8c"]

[ext_resource type="PackedScene" uid="uid://cfysh5opqolny" path="res://Types/Weapons/#AbstractWeapon/AbstractWeapon.tscn" id="1_8v71j"]
[ext_resource type="PackedScene" uid="uid://dkuahcn0sc1td" path="res://Types/Projectiles/Bullet/BulletProjectile.tscn" id="2_1i4xu"]
[ext_resource type="Texture2D" uid="uid://dnl4xqk5o4wxl" path="res://Types/Weapons/Minigun/base.png" id="2_bhihr"]
[ext_resource type="Texture2D" uid="uid://cw5ug6ci8lave" path="res://Types/Weapons/Minigun/turret.png" id="3_26dix"]

[node name="MinigunWeapon" instance=ExtResource("1_8v71j")]
projectile_scene = ExtResource("2_1i4xu")

[node name="base" parent="sprite" index="0"]
texture = ExtResource("2_bhihr")

[node name="turret" parent="sprite" index="1"]
texture = ExtResource("3_26dix")

[node name="barrel" parent="." index="1"]
position = Vector2(9, 0)
