[gd_scene load_steps=3 format=3 uid="uid://cqj8uec4ggsbf"]

[ext_resource type="PackedScene" uid="uid://d26moabs7eq6b" path="res://Types/Modules/#AbstractModule/AbstractModule.tscn" id="1_o2f5r"]
[ext_resource type="Script" path="res://Types/Modules/Ai/AiModule.gd" id="2_rg3uk"]

[node name="AiModule" instance=ExtResource("1_o2f5r")]
script = ExtResource("2_rg3uk")
